jesus,333
satan,666
man,1
cat,9
Punter,341
Punter,194
Punter,186
Punter,102
Punter,220
Punter,4521
Punter,428
Punter,697
Punter,964
Punter,478
Punter,882
Punter,2179
Punter,639
Punter,4762
Punter,1646
Punter,1418
Punter,3928
Punter,1253
Punter,11450
